{
    "_id" : "tSethAA659L3SZHeF",
    "product_id" : "STM899",
    "user_id" : "aYXqJCe6CPQoLBYaX",
    "category1" : "Audio Products",
    "category2" : "Accessories",
    "img" : "/uploads/product/y652oxik82d18aor.jpg",
    "datasheet" : "/uploads/product/suihinwnqumcxr.pdf",
    "user_company" : "北京申强电子股份有限公司",
    "manufacturer" : "IAR Systems Software Inc",
    "standard_packing" : "100",
    "inc_number" : 100,
    "MOQ" : 100,
    "currency" : 1,
    "price" : [ 
        {
            "min" : 0,
            "max" : 100,
            "price" : 10
        }
    ],
    "stock_quantity" : 8900,
    "stock_address" : [ 
        {
            "address" : "贵州 贵阳",
            "quantity" : 8900
        }
    ],
    "batch" : [ 
        {
            "num" : "DDADA46451",
            "quantity" : 8900
        }
    ],
    "origin_address" : [ 
        {
            "address" : "美国",
            "quantity" : 8900
        }
    ],
    "package" : [ 
        {
            "package" : "管装/部分原厂包装",
            "quantity" : 8600
        }
    ],
    "DPA" : true,
    "COC" : false,
    "data_packet" : false,
    "guarantee" : false,
    "ROHS" : true,
    "free_ship" : 1,
    "trans_expanse" : 0,
    "dest_pay" : false,
    "putaway" : true,
    "createAt" : "2017-03-30T18:11:47.303+08:00",
    "updateAt" : "2017-03-30T18:12:06.403+08:00",
    "sold_quantity" : 1100,
    "order_count" : 0,
    "comment_five_stars" : {
        "socle" : 0,
        "speed" : 0,
        "package" : 0,
        "service" : 0,
        "label" : 0
    },
    "comment" : [],
    "type" : "manufacturer"
}