{
    "_id" : "H29P9sxQKbrLdKZ6i",
    "id" : "ce45feaf-5adb-41ef-98e1-1909cccc3af5",
    "order_status" : 4,
    "customer_id" : "mxcfWbnQKoifanf26",
    "customer_name" : "lorina_ye@163.com",
    "seller_id" : "zQTNjmBtnSakY2dnw",
    "company_name" : "深圳英特翎电子有限公司",
    "company_type" : "retailer",
    "currency" : 1,
    "postage" : 0,
    "packagePrice" : 0,
    "labelPrice" : 0,
    "listPrice" : 0,
    "product" : [ 
        {
            "stock_id" : "QQ6nRmenNoG4FW7QW",
            "product_id" : "LM224DR",
            "manufacturer" : "Texas Instruments",
            "package" : [ 
                {
                    "package" : "托盘/供方包装",
                    "quantity" : 100000
                }
            ],
            "price" : [ 
                {
                    "min" : 1,
                    "max" : 20000,
                    "price" : 0.44
                }
            ],
            "quantity" : 10000,
            "img" : "/uploads/product/7cibrpok2egn91jwqlksinqaor.png",
            "describe" : "IC OPAMP GP 1.2MHZ 14SOIC"
        }
    ],
    "address" : {
        "id" : 1,
        "name" : "曲艺",
        "address" : "中国大陆 北京市 北京市 海淀区",
        "detailAddress" : "海龙大厦808",
        "phone" : "中国 +86 18611208286",
        "tel" : "",
        "code" : ""
    },
    "invoice_address" : {
        "id" : 1,
        "name" : "曲艺",
        "address" : "中国大陆 北京市 北京市 海淀区",
        "detailAddress" : "海龙大厦808",
        "phone" : "中国 +86 18611208286",
        "tel" : "",
        "code" : ""
    },
    "invoice_name" : "",
    "invoice_type" : 1,
    "invoice_title" : "贝特斯特（北京）电气有限公司",
    "invoice_way" : 2,
    "invoice_email" : "",
    "options" : [ 
        "packaging", 
        "packaging", 
        "packaging"
    ],
    "optionsfile" : [],
    "order" : "",
    "remark" : "",
    "reminder_delivery" : 0,
    "delay_receive" : 0,
    "company_invoice" : null,
    "seller_info" : {
        "company" : "深圳英特翎电子有限公司",
        "address" : "深圳市福田区福中路与中航路交汇处新亚洲电子商城第六层619-623",
        "industry" : "IC及元器件",
        "name" : "王乌海",
        "id" : "322534196102034452",
        "front" : "uploads/identity/lmkwxscoi2du09lvqs9n3ik9.png",
        "back" : "uploads/identity/0ofhy3tibja2l3xm0demsoflxr.jpg",
        "begin1" : "2010-03-19",
        "end1" : "2017-03-31",
        "license" : "uploads/identity/lesag2aek11ctq3n3i110pb9.jpg",
        "begin2" : "2009-10-21",
        "end2" : "2019-10-21",
        "verify" : true,
        "success" : true
    },
    "seller_contact" : null,
    "problem_order" : 1,
    "operation" : {
        "customer_receive" : true,
        "customer_comment" : true,
        "customer_addition" : false,
        "seller_comment" : false
    },
    "additional_comment" : false,
    "return_goods_status" : 0,
    "return_goods" : {
        "product_choice" : "product_choice",
        "amount" : "",
        "return_reason" : "",
        "explain" : "",
        "agreed" : 1,
        "refused_reason" : "",
        "addition" : "",
        "delivery_company" : "",
        "delivery_number" : "",
        "createAt_problem" : "",
        "update_time_problem" : ""
    },
    "return_fund_status" : 0,
    "return_fund" : {
        "amount" : "amount",
        "return_reason" : "return_reason",
        "explain" : "explain",
        "agreed" : "",
        "refused_reason" : "refused_reason",
        "addition" : "",
        "createAt_problem" : "",
        "update_time_problem" : ""
    },
    "quality_assurance_status" : 0,
    "quality_assurance" : {
        "product_choice" : "",
        "agency" : "",
        "delivery_company" : "",
        "delivery_number" : "",
        "createAt_problem" : "",
        "update_time_problem" : ""
    },
    "payment_application" : 1,
    "closed_reason" : "质量问题",
    "comment_time" : "2017-03-17",
    "delivery" : {
        "delivery_type" : 1,
        "delivery_stock" : [ 
            {
                "stock_id" : "QQ6nRmenNoG4FW7QW",
                "stock_address" : [ 
                    10000
                ],
                "origin_address" : [ 
                    10000
                ],
                "batch" : [ 
                    10000
                ],
                "package" : [ 
                    10000
                ]
            }
        ],
        "logistics_company" : "顺丰速递",
        "logistics_number" : 308695883768.0
    }
}